driverPerformanceTest1,123456,DRIVER,5673a59bc76e6c18846e812a,NETA
driverPerformanceTest2,123456,DRIVER,5673a59bc76e6c18846e812a,NETA
driverPerformanceTest3,123456,DRIVER,5673a59bc76e6c18846e812a,NETA
driverPerformanceTest4,123456,DRIVER,5673a59bc76e6c18846e812a,NETA
driverPerformanceTest5,123456,DRIVER,5673a59bc76e6c18846e812a,NETA
driverPerformanceTest6,123456,DRIVER,5673a59bc76e6c18846e812a,NETA
driverPerformanceTest7,123456,DRIVER,5673a59bc76e6c18846e812a,NETA
driverPerformanceTest8,123456,DRIVER,5673a59bc76e6c18846e812a,NETA
driverPerformanceTest9,123456,DRIVER,5673a59bc76e6c18846e812a,NETA
driverPerformanceTest10,123456,DRIVER,5673a59bc76e6c18846e812a,NETA
driverPerformanceTest11,123456,DRIVER,5673a59bc76e6c18846e812a,NETA
driverPerformanceTest12,123456,DRIVER,5673a59bc76e6c18846e812a,NETA
driverPerformanceTest13,123456,DRIVER,5673a59bc76e6c18846e812a,NETA
driverPerformanceTest14,123456,DRIVER,5673a59bc76e6c18846e812a,NETA
driverPerformanceTest15,123456,DRIVER,5673a59bc76e6c18846e812a,NETA
driverPerformanceTest16,123456,DRIVER,5673a59bc76e6c18846e812a,NETA
driverPerformanceTest17,123456,DRIVER,5673a59bc76e6c18846e812a,NETA
driverPerformanceTest18,123456,DRIVER,5673a59bc76e6c18846e812a,NETA
driverPerformanceTest19,123456,DRIVER,5673a59bc76e6c18846e812a,NETA
driverPerformanceTest20,123456,DRIVER,5673a59bc76e6c18846e812a,NETA
driverPerformanceTest21,123456,DRIVER,5673a59bc76e6c18846e812a,NETA
driverPerformanceTest22,123456,DRIVER,5673a59bc76e6c18846e812a,NETA
driverPerformanceTest23,123456,DRIVER,5673a59bc76e6c18846e812a,NETA
driverPerformanceTest24,123456,DRIVER,5673a59bc76e6c18846e812a,NETA
driverPerformanceTest25,123456,DRIVER,5673a59bc76e6c18846e812a,NETA
driverPerformanceTest26,123456,DRIVER,5673a59bc76e6c18846e812a,NETA
driverPerformanceTest27,123456,DRIVER,5673a59bc76e6c18846e812a,NETA
driverPerformanceTest28,123456,DRIVER,5673a59bc76e6c18846e812a,NETA
driverPerformanceTest29,123456,DRIVER,5673a59bc76e6c18846e812a,NETA
driverPerformanceTest30,123456,DRIVER,5673a59bc76e6c18846e812a,NETA
driverPerformanceTest31,123456,DRIVER,5673a59bc76e6c18846e812a,NETA
driverPerformanceTest32,123456,DRIVER,5673a59bc76e6c18846e812a,NETA
driverPerformanceTest33,123456,DRIVER,5673a59bc76e6c18846e812a,NETA
driverPerformanceTest34,123456,DRIVER,5673a59bc76e6c18846e812a,NETA
driverPerformanceTest35,123456,DRIVER,5673a59bc76e6c18846e812a,NETA
driverPerformanceTest36,123456,DRIVER,5673a59bc76e6c18846e812a,NETA
driverPerformanceTest37,123456,DRIVER,5673a59bc76e6c18846e812a,NETA
driverPerformanceTest38,123456,DRIVER,5673a59bc76e6c18846e812a,NETA
driverPerformanceTest39,123456,DRIVER,5673a59bc76e6c18846e812a,NETA
driverPerformanceTest40,123456,DRIVER,5673a59bc76e6c18846e812a,NETA
