dispatcherPerformanceTest11,123456,NETC
driverPerformanceTest81,123456,NETC
driverPerformanceTest82,123456,NETC
driverPerformanceTest83,123456,NETC
driverPerformanceTest84,123456,NETC
driverPerformanceTest85,123456,NETC
driverPerformanceTest86,123456,NETC
driverPerformanceTest87,123456,NETC
driverPerformanceTest88,123456,NETC
driverPerformanceTest89,123456,NETC
driverPerformanceTest90,123456,NETC
driverPerformanceTest91,123456,NETC
driverPerformanceTest92,123456,NETC
driverPerformanceTest93,123456,NETC
driverPerformanceTest94,123456,NETC
driverPerformanceTest95,123456,NETC
driverPerformanceTest96,123456,NETC
driverPerformanceTest97,123456,NETC
driverPerformanceTest98,123456,NETC
driverPerformanceTest99,123456,NETC
driverPerformanceTest100,123456,NETC
driverPerformanceTest101,123456,NETC
driverPerformanceTest102,123456,NETC
driverPerformanceTest103,123456,NETC
driverPerformanceTest104,123456,NETC
driverPerformanceTest105,123456,NETC
driverPerformanceTest106,123456,NETC
driverPerformanceTest107,123456,NETC
driverPerformanceTest108,123456,NETC
driverPerformanceTest109,123456,NETC
driverPerformanceTest110,123456,NETC
driverPerformanceTest111,123456,NETC
driverPerformanceTest112,123456,NETC
driverPerformanceTest113,123456,NETC
driverPerformanceTest114,123456,NETC
driverPerformanceTest115,123456,NETC
driverPerformanceTest116,123456,NETC
driverPerformanceTest117,123456,NETC
driverPerformanceTest118,123456,NETC
driverPerformanceTest119,123456,NETC
driverPerformanceTest120,123456,NETC
