dispatcherPerfTestNetG1,123456,DISPATCHER,5673b5a6c76e6c18846ea435,NETG
dispatcherPerfTestNetG2,123456,DISPATCHER,5673b5a6c76e6c18846ea435,NETG
dispatcherPerfTestNetG3,123456,DISPATCHER,5673b5a6c76e6c18846ea435,NETG
dispatcherPerfTestNetG4,123456,DISPATCHER,5673b5a6c76e6c18846ea435,NETG
dispatcherPerfTestNetG5,123456,DISPATCHER,5673b5a6c76e6c18846ea435,NETG
